## Interface: 50001
## Title: oUF SpellRange
## Notes: Range element for oUF that works for non-group members
## Author: Saiket
## Version: 5.0.0.2
## X-Date: 2012-09-10
## X-Category: UnitFrame
## X-License: GPLv3
## X-Email: saiket.wow@gmail.com
## X-Website: http://sites.google.com/site/wowsaiket/Add-Ons/oUF_SpellRange
## X-Feedback: http://code.google.com/p/wow-saiket/issues/list?can=1&q=AddOn:oUF_SpellRange
## X-WoWI-ID: 12839
## X-Curse-Project-ID: ouf_spellrange
## X-oUF: oUF
## RequiredDeps: oUF

oUF_SpellRange.lua